%YAML 1.1
%TAG !u! tag:unity3d.com,2011:
--- !u!114 &11400000
MonoBehaviour:
  m_ObjectHideFlags: 0
  m_CorrespondingSourceObject: {fileID: 0}
  m_PrefabInternal: {fileID: 0}
  m_GameObject: {fileID: 0}
  m_Enabled: 1
  m_EditorHideFlags: 0
  m_Script: {fileID: 11500000, guid: 758c38ce946db66419c1381fab9b5a24, type: 3}
  m_Name: Bullet_Orange
  m_EditorClassIdentifier: 
  icon: {fileID: 21300000, guid: aa30d1e99ccde85429bf1e6e1c71e7c2, type: 3}
  prefab: {fileID: 1580417071303200, guid: 2bb1c343edd32b9418200fe082ed4503, type: 2}
  attackTime: 2
  cooldown: 0.25
